<svg width="36" height="36" viewBox="0 0 36 36" fill="none" xmlns="http://www.w3.org/2000/svg">
<path d="M23.5917 13.2157L11.6576 22.6275C11.4205 22.8236 11.3414 23.2157 11.5785 23.451C11.6971 23.6079 11.8551 23.6863 12.0527 23.6863C12.1713 23.6863 12.3293 23.6471 12.4084 23.5687L24.3425 14.1569C24.5796 13.9608 24.6586 13.5687 24.4215 13.3334C24.224 13.0589 23.8683 13.0197 23.5917 13.2157Z" fill="#3F3F48"/>
<path d="M14.8584 17.4118C15.0165 17.4118 15.1746 17.4118 15.3326 17.3725C16.9528 17.1372 18.0988 15.6078 17.8222 13.9608C17.7036 13.1765 17.269 12.4706 16.6367 12C16.0044 11.5294 15.2141 11.3333 14.4237 11.451C13.6334 11.5686 12.9221 12 12.4479 12.6274C11.9737 13.2549 11.7761 14.0392 11.8946 14.8235C12.1317 16.3529 13.4358 17.4118 14.8584 17.4118ZM14.5818 12.6667C14.6608 12.6667 14.7794 12.6274 14.8584 12.6274C15.7278 12.6274 16.5181 13.2549 16.6367 14.1569C16.7947 15.1372 16.123 16.0392 15.135 16.1961C14.1471 16.3529 13.2382 15.6863 13.0801 14.7059C12.9221 13.7255 13.6334 12.8235 14.5818 12.6667Z" fill="#3F3F48"/>
<path d="M21.1811 19.3725C19.5214 19.3725 18.1778 20.7058 18.1778 22.3529C18.1778 24 19.5214 25.3333 21.1811 25.3333C22.8408 25.3333 24.1844 24 24.1844 22.3529C24.1449 20.7058 22.8013 19.3725 21.1811 19.3725ZM21.1811 24.1176C20.1932 24.1176 19.3633 23.2941 19.3633 22.3137C19.3633 21.3333 20.1932 20.5098 21.1811 20.5098C22.169 20.5098 22.9989 21.3333 22.9989 22.3137C22.9594 23.3333 22.169 24.1176 21.1811 24.1176Z" fill="#3F3F48"/>
<path d="M35.9605 18C35.9605 17.9608 36 17.8824 36 17.8431C36 16.1569 34.2217 15.2941 32.6806 14.549C31.5741 14 30.3886 13.4118 30.0724 12.7059C29.7563 11.9608 30.191 10.7451 30.6257 9.60784C31.2184 8 31.8112 6.35294 30.7047 5.2549C29.5982 4.15686 28.0176 4.54902 26.4369 4.90196C25.3304 5.13726 24.1844 5.41177 23.4336 5.09804C22.6828 4.78431 22.0505 3.80392 21.4577 2.86275C20.5884 1.52941 19.64 0 17.9802 0C16.3205 0 15.3721 1.52941 14.5423 2.90196C13.9495 3.88235 13.3568 4.86275 12.6059 5.17647C11.8551 5.4902 10.6696 5.21569 9.56312 4.94118C7.98244 4.54902 6.36224 4.15686 5.29528 5.21569C4.1888 6.31373 4.74204 7.96078 5.25576 9.56863C5.65093 10.7451 6.00659 11.9216 5.69045 12.7059C5.37431 13.451 4.26784 14 3.20088 14.549C1.69923 15.3333 0 16.1961 0 17.8431C0 17.8824 -3.61985e-08 17.9608 0.039517 18C0.039517 18.0392 0 18.1176 0 18.1569C0 19.8039 1.69923 20.7059 3.20088 21.451C4.26784 22 5.37431 22.549 5.69045 23.2941C6.00659 24.0392 5.61142 25.2549 5.25576 26.4314C4.74204 28.0392 4.1888 29.6863 5.29528 30.7843C6.40176 31.8824 8.02195 31.451 9.56312 31.0588C10.6696 30.7843 11.8551 30.5098 12.6059 30.8235C13.3568 31.1373 13.9495 32.1176 14.5423 33.098C15.3721 34.4706 16.3205 36 17.9802 36C19.64 36 20.6279 34.4706 21.4577 33.1373C22.0505 32.1961 22.6828 31.2157 23.4336 30.902C24.2239 30.5882 25.3304 30.8235 26.4369 31.098C27.978 31.451 29.5982 31.8431 30.7047 30.7451C31.8112 29.6471 31.2184 28 30.6257 26.3922C30.191 25.2157 29.7563 24.0392 30.0724 23.2941C30.3886 22.549 31.5346 22 32.6806 21.451C34.2217 20.6667 36 19.8039 36 18.1569C36 18.0784 35.9605 18.0392 35.9605 18ZM32.1273 20.3922C30.8233 21.0588 29.4402 21.7255 28.966 22.8627C28.4522 24.0392 29.0055 25.451 29.4797 26.8235C29.9539 28.1176 30.4281 29.3725 29.8353 29.9216C29.2031 30.549 27.978 30.2745 26.674 29.9608C25.3699 29.6471 24.0659 29.3726 22.9199 29.8431C21.8134 30.3137 21.1021 31.4118 20.4303 32.5098C19.6795 33.6863 18.9682 34.8235 17.9407 34.8235C16.9528 34.8235 16.2415 33.6863 15.4907 32.4706C14.8189 31.3333 14.1076 30.1961 13.0011 29.7255C11.8551 29.2549 10.5115 29.5686 9.20747 29.9216C7.9034 30.2353 6.67838 30.549 6.0461 29.9608C5.45335 29.3726 5.84852 28.1176 6.28321 26.8235C6.71789 25.451 7.1921 24.0392 6.67838 22.902C6.20417 21.7647 4.90011 21.098 3.63557 20.4706C2.3315 19.8039 1.10648 19.1765 1.10648 18.1961C1.10648 18.1569 1.10648 18.0784 1.06696 18.0392C1.06696 18 1.10648 17.9216 1.10648 17.8824C1.10648 16.9412 2.3315 16.3137 3.63557 15.6078C4.90011 14.9804 6.20417 14.3137 6.67838 13.1765C7.15258 12 6.71789 10.5882 6.28321 9.2549C5.84852 7.92157 5.45335 6.66667 6.0461 6.11765C6.67838 5.4902 7.9034 5.80392 9.20747 6.15686C10.5115 6.47059 11.8551 6.82353 13.0011 6.35294C14.1076 5.88235 14.8189 4.7451 15.4907 3.60784C16.2415 2.39216 16.9133 1.2549 17.9407 1.2549C18.9682 1.2549 19.6795 2.39216 20.4303 3.56863C21.1416 4.66667 21.8529 5.76471 22.9199 6.23529C24.0659 6.70588 25.3699 6.39216 26.674 6.11765C27.978 5.80392 29.2031 5.52941 29.8353 6.15686C30.4281 6.70588 29.9539 7.96079 29.4797 9.2549C28.966 10.6275 28.4522 12.0392 28.966 13.2157C29.4402 14.3529 30.8233 15.0196 32.1273 15.6863C33.5104 16.3529 34.775 17.0196 34.775 17.9608C34.775 18 34.775 18.0784 34.8145 18.1176C34.8145 18.1569 34.775 18.2353 34.775 18.2745C34.8145 19.0588 33.5104 19.7255 32.1273 20.3922Z" fill="#3F3F48"/>
</svg>
