<svg width="28" height="20" viewBox="0 0 28 20" fill="none" xmlns="http://www.w3.org/2000/svg">
<path d="M19.0286 1.21112V0.878317C19.0286 0.393413 18.6367 0 18.1536 0H0.874929C0.391895 0 0 0.393413 0 0.878317V16.7795C0 17.2644 0.391895 17.6578 0.874929 17.6578H4.48501C4.86864 19.0053 6.0926 20 7.55651 20C9.02042 20 10.2444 19.0053 10.628 17.6578H18.1536H19.6197C20.0033 19.0053 21.2273 20 22.6912 20C24.1551 20 25.3791 19.0053 25.7627 17.6578H26.9223C26.9582 17.6578 26.9889 17.6415 27.0237 17.6372C27.0585 17.6415 27.0891 17.6578 27.1251 17.6578C27.6081 17.6578 28 17.2644 28 16.7795V10.0578C28 5.42436 24.049 1.61268 19.0286 1.21112ZM26.2165 9.47221H22.9304C22.092 9.24177 21.9222 7.73445 21.9222 5.38712V3.75236C24.3068 4.86212 25.9856 6.98815 26.2165 9.47221ZM20.7556 3.31241V5.38712C20.7556 7.93287 20.9072 10.2493 22.7436 10.6313C22.7823 10.6393 22.8222 10.6433 22.8621 10.6433H26.2501V15.9012H25.7627C25.3791 14.5537 24.1551 13.559 22.6912 13.559C21.2273 13.559 20.0033 14.5537 19.6197 15.9012H18.1536H10.628C10.4982 15.4453 10.2739 15.0337 9.97296 14.6844H18.1536C18.3885 14.6844 18.5879 14.5435 18.6804 14.3428C18.8869 14.1821 19.0286 13.9421 19.0286 13.6597V2.97111C19.6269 3.028 20.2033 3.14666 20.7556 3.31241ZM17.2787 13.5133H1.74986V1.75663H17.2787V13.5133ZM1.74986 14.6844H5.14006C4.83909 15.0337 4.61481 15.4453 4.48501 15.9012H1.74986V14.6844ZM7.55651 18.2434C6.75222 18.2434 6.0983 17.5869 6.0983 16.7795C6.0983 15.9721 6.75222 15.3156 7.55651 15.3156C8.35981 15.3156 9.01259 15.9707 9.01416 16.7766C9.01416 16.7776 9.01359 16.7785 9.01359 16.7795C9.01359 16.7805 9.01416 16.7814 9.01416 16.7824C9.01259 17.5883 8.35981 18.2434 7.55651 18.2434ZM22.6912 18.2434C21.8869 18.2434 21.233 17.5869 21.233 16.7795C21.233 15.9721 21.8869 15.3156 22.6912 15.3156C23.4955 15.3156 24.1494 15.9721 24.1494 16.7795C24.1494 17.5869 23.4955 18.2434 22.6912 18.2434Z" fill="#31BA00"/>
</svg>
