<svg width="18" height="13" viewBox="0 0 18 13" fill="none" xmlns="http://www.w3.org/2000/svg">
<path d="M12.2326 0.775572V0.562454C12.2326 0.251933 11.9807 0 11.6702 0H0.562454C0.251933 0 0 0.251933 0 0.562454V10.7452C0 11.0557 0.251933 11.3077 0.562454 11.3077H2.88322C3.12984 12.1706 3.91667 12.8076 4.85776 12.8076C5.79884 12.8076 6.58568 12.1706 6.8323 11.3077H11.6702H12.6127C12.8593 12.1706 13.6461 12.8076 14.5872 12.8076C15.5283 12.8076 16.3151 12.1706 16.5617 11.3077H17.3072C17.3303 11.3077 17.35 11.2972 17.3724 11.2945C17.3947 11.2972 17.4144 11.3077 17.4375 11.3077C17.7481 11.3077 18 11.0557 18 10.7452V6.44076C18 3.47364 15.4601 1.03272 12.2326 0.775572ZM16.8534 6.06579H14.741C14.202 5.91822 14.0928 4.95297 14.0928 3.44979V2.40293C15.6258 3.11359 16.705 4.47505 16.8534 6.06579ZM13.3429 2.1212V3.44979C13.3429 5.08003 13.4403 6.56343 14.6209 6.80804C14.6458 6.81317 14.6714 6.81573 14.697 6.81573H16.8751V10.1828H16.5617C16.3151 9.31986 15.5283 8.68289 14.5872 8.68289C13.6461 8.68289 12.8593 9.31986 12.6127 10.1828H11.6702H6.8323C6.74886 9.89083 6.60467 9.62722 6.41119 9.40353H11.6702C11.8212 9.40353 11.9494 9.31331 12.0088 9.18483C12.1416 9.08189 12.2326 8.92823 12.2326 8.74734V1.90263C12.6173 1.93907 12.9878 2.01505 13.3429 2.1212ZM11.1077 8.65359H1.12491V1.12491H11.1077V8.65359ZM1.12491 9.40353H3.30433C3.11085 9.62722 2.96666 9.89083 2.88322 10.1828H1.12491V9.40353ZM4.85776 11.6826C4.34071 11.6826 3.92034 11.2623 3.92034 10.7452C3.92034 10.2282 4.34071 9.8078 4.85776 9.8078C5.37417 9.8078 5.79381 10.2273 5.79482 10.7434C5.79482 10.744 5.79445 10.7446 5.79445 10.7452C5.79445 10.7459 5.79482 10.7464 5.79482 10.7471C5.79381 11.2632 5.37417 11.6826 4.85776 11.6826ZM14.5872 11.6826C14.0701 11.6826 13.6498 11.2623 13.6498 10.7452C13.6498 10.2282 14.0701 9.8078 14.5872 9.8078C15.1042 9.8078 15.5246 10.2282 15.5246 10.7452C15.5246 11.2623 15.1042 11.6826 14.5872 11.6826Z" fill="#025514"/>
</svg>
