<?xml version="1.0" encoding="utf-8"?>
<!-- Generator: Adobe Illustrator 19.0.0, SVG Export Plug-In . SVG Version: 6.00 Build 0)  -->
<svg version="1.1" id="Layer_1" xmlns="http://www.w3.org/2000/svg" xmlns:xlink="http://www.w3.org/1999/xlink" x="0px" y="0px"
	 viewBox="0 0 96 96" style="enable-background:new 0 0 96 96;" xml:space="preserve">
<style type="text/css">
	.st0{fill:#333333;}
</style>
<g id="XMLID_6_">
	<path id="XMLID_11_" class="st0" d="M48,37.6c-5.7,0-10.4,4.6-10.4,10.4S42.3,58.4,48,58.4S58.4,53.7,58.4,48S53.7,37.6,48,37.6z
		 M71.2,45.4C70,34.6,61.4,26,50.6,24.8v-5.3h-5.2v5.3C34.6,26,26,34.6,24.8,45.4h-5.3v5.2h5.3C26,61.4,34.6,70,45.4,71.2v5.3h5.2
		v-5.3C61.4,70,70,61.4,71.2,50.6h5.3v-5.2H71.2z M48,66.1C38,66.1,29.9,58,29.9,48S38,29.9,48,29.9S66.1,38,66.1,48
		S58,66.1,48,66.1z"/>
</g>
</svg>
