<svg width="24" height="26" viewBox="0 0 24 26" fill="none" xmlns="http://www.w3.org/2000/svg">
<path d="M17.5212 7.8175L3.88491 0.324348C3.17628 -0.0650187 2.4079 -0.0849176 1.74286 0.163949L13.3604 12.0881L17.5212 7.8175Z" fill="white"/>
<path d="M22.6065 10.6119L18.6785 8.45348L14.2489 13L18.6785 17.5465L22.6064 15.3881C24.4645 14.3671 24.4645 11.6328 22.6065 10.6119Z" fill="white"/>
<path d="M0.679269 0.89606C0.262623 1.36607 0 1.99354 0 2.71247V23.2875C0 24.0064 0.262622 24.6339 0.679217 25.1039L12.472 13L0.679269 0.89606Z" fill="white"/>
<path d="M1.74286 25.8361C2.40785 26.0849 3.17628 26.0651 3.88491 25.6757L17.5212 18.1825L13.3605 13.9119L1.74286 25.8361Z" fill="white"/>
</svg>
