<svg width="20" height="19" viewBox="0 0 20 19" fill="none" xmlns="http://www.w3.org/2000/svg">
<path d="M18.8929 8.71436C18.8929 8.30015 18.5571 7.96436 18.1429 7.96436C17.7286 7.96436 17.3929 8.30015 17.3929 8.71436H18.8929ZM18.1429 9.50486L18.8929 9.50529V9.50486H18.1429ZM12.7569 2.42188C13.1358 2.58929 13.5786 2.41786 13.746 2.03899C13.9134 1.66011 13.742 1.21726 13.3631 1.04985L12.7569 2.42188ZM19.5281 2.38742C19.8222 2.09576 19.8242 1.62089 19.5325 1.32677C19.2409 1.03265 18.766 1.03067 18.4719 1.32233L19.5281 2.38742ZM9.57143 11.2049L9.04332 11.7374C9.3357 12.0274 9.80716 12.0274 10.0995 11.7374L9.57143 11.2049ZM7.52811 8.12233C7.23399 7.83066 6.75912 7.83265 6.46746 8.12677C6.17579 8.42088 6.17778 8.89575 6.47189 9.18742L7.52811 8.12233ZM17.3929 8.71436V9.50486H18.8929V8.71436H17.3929ZM17.3929 9.50443C17.3919 11.1741 16.8467 12.7994 15.8377 14.1379L17.0355 15.0409C18.2398 13.4433 18.8917 11.5015 18.8929 9.50529L17.3929 9.50443ZM15.8377 14.1379C14.8285 15.4766 13.4092 16.4569 11.7907 16.9315L12.2128 18.3709C14.1392 17.806 15.8312 16.6384 17.0355 15.0409L15.8377 14.1379ZM11.7907 16.9315C10.1721 17.4061 8.44209 17.349 6.85898 16.769L6.34297 18.1775C8.2275 18.8679 10.2863 18.9357 12.2128 18.3709L11.7907 16.9315ZM6.85898 16.769C5.27595 16.1891 3.9256 15.1176 3.00843 13.7158L1.75321 14.537C2.84809 16.2105 4.45836 17.487 6.34297 18.1775L6.85898 16.769ZM3.00843 13.7158C2.09133 12.314 1.65615 10.6565 1.76693 8.99049L0.270233 8.89097C0.137783 10.8829 0.658265 12.8634 1.75321 14.537L3.00843 13.7158ZM1.76693 8.99049C1.87771 7.32441 2.52864 5.73765 3.62378 4.46702L2.48756 3.48773C1.18086 5.00383 0.402681 6.89907 0.270233 8.89097L1.76693 8.99049ZM3.62378 4.46702C4.719 3.19629 6.19999 2.30974 7.84642 1.94084L7.51847 0.477134C5.55907 0.916145 3.79418 1.97173 2.48756 3.48773L3.62378 4.46702ZM7.84642 1.94084C9.49291 1.57194 11.2155 1.74079 12.7569 2.42188L13.3631 1.04985C11.5278 0.23891 9.47782 0.0381347 7.51847 0.477134L7.84642 1.94084ZM18.4719 1.32233L9.04332 10.6723L10.0995 11.7374L19.5281 2.38742L18.4719 1.32233ZM10.0995 10.6723L7.52811 8.12233L6.47189 9.18742L9.04332 11.7374L10.0995 10.6723Z" fill="#31BA00"/>
</svg>
