<svg width="150" height="24" viewBox="0 0 150 24" fill="none" xmlns="http://www.w3.org/2000/svg">
<path fill-rule="evenodd" clip-rule="evenodd" d="M58.7016 8.99946H57.3791L52.9678 13.4679V8.99946H51.8058V17.0002H52.9678V14.932L54.4536 13.4461L57.5641 17.0002H58.9221L55.2292 12.5998L58.7016 8.99946ZM61.0338 9.99275H63.8205V16.9975H64.9689V9.99275H67.7555V8.99946H61.0338V9.99275ZM33.7742 15.5715L30.8488 8.99946H29.5942L33.1701 17.0002H34.3185L37.8834 8.99946H36.7214L33.7742 15.5715ZM42.6322 13.4216H46.706V12.4501H42.6322V9.99275H47.2067V8.99946H41.4701V17.0002H47.3673V16.0069H42.6294V13.4216H42.6322ZM77.3346 9.44033C76.6761 9.08655 75.9413 8.90967 75.1276 8.90967C74.3058 8.90967 73.5683 9.08655 72.9097 9.44033C72.2512 9.7941 71.7341 10.2839 71.3586 10.9071C70.983 11.533 70.7952 12.2297 70.7952 12.9998C70.7952 13.77 70.983 14.4666 71.3586 15.0898C71.7341 15.7157 72.2512 16.2028 72.9097 16.5593C73.5683 16.9131 74.3058 17.09 75.1276 17.09C75.9413 17.09 76.6761 16.9131 77.3346 16.5593C77.9932 16.2056 78.5075 15.7184 78.8776 15.0952C79.2504 14.4748 79.4355 13.7754 79.4355 12.9998C79.4355 12.2215 79.2504 11.5249 78.8776 10.9017C78.5075 10.2812 77.9932 9.7941 77.3346 9.44033ZM77.8626 14.5727C77.5877 15.0408 77.2122 15.4082 76.7359 15.6749C76.2597 15.9416 75.7236 16.0749 75.1276 16.0749C74.5316 16.0749 73.9928 15.9416 73.5084 15.6749C73.024 15.4082 72.6458 15.0408 72.3709 14.5727C72.0961 14.1047 71.96 13.5795 71.96 13.0026C71.96 12.4229 72.0961 11.9004 72.3709 11.4296C72.6458 10.9615 73.024 10.5942 73.5084 10.3275C73.9928 10.0608 74.5316 9.92745 75.1276 9.92745C75.7236 9.92745 76.2597 10.0608 76.7359 10.3275C77.2122 10.5942 77.5877 10.9615 77.8626 11.4296C78.1374 11.8977 78.2735 12.4229 78.2735 13.0026C78.2735 13.5795 78.1374 14.102 77.8626 14.5727ZM115.24 13.4216H119.314V12.4501H115.24V9.99275H119.815V8.99946H114.078V17.0002H119.975V16.0069H115.237V13.4216H115.24ZM146.31 8.99946H145.161L141.482 17.0002H142.677L143.569 15H147.888L148.781 17.0002H150L146.31 8.99946ZM143.977 14.0856L145.73 10.1642L147.482 14.0856H143.977ZM136.556 17.0002H137.718V8.99946H136.556V17.0002ZM108.124 8.99946L104.779 14.6217L101.388 8.99946H100.436V17.0002H101.552V11.2065L104.488 16.0287H105.021L107.958 11.1711L107.969 17.0002H109.084L109.074 8.99946H108.124ZM130.126 9.5029C129.459 9.16818 128.697 8.99946 127.84 8.99946H124.414V17.0002H127.84C128.7 17.0002 129.462 16.8342 130.126 16.4967C130.793 16.162 131.307 15.6912 131.677 15.0871C132.044 14.4802 132.229 13.7863 132.229 13.0026C132.229 12.2161 132.044 11.5221 131.677 10.9153C131.31 10.3084 130.793 9.83763 130.126 9.5029ZM130.659 14.5727C130.387 15.0272 130.003 15.3783 129.505 15.6286C129.007 15.879 128.428 16.0069 127.769 16.0069H125.576V9.99547H127.769C128.428 9.99547 129.005 10.1206 129.505 10.3737C130.003 10.6268 130.39 10.9779 130.659 11.4323C130.931 11.8868 131.065 12.4093 131.065 13.0053C131.065 13.5931 130.931 14.1183 130.659 14.5727ZM89.8609 13.3645C90.1711 12.9318 90.3263 12.4039 90.3263 11.7888C90.3263 10.9207 90.0242 10.2377 89.4201 9.7424C88.8159 9.24711 87.9886 8.99946 86.9355 8.99946H83.7651V17.0002H84.9271V14.5673H86.9355C87.0579 14.5673 87.2294 14.5592 87.4471 14.5456L89.1996 17.0029H90.465L88.5384 14.317C89.1098 14.1156 89.5534 13.7999 89.8609 13.3645ZM86.9001 13.5931H84.9271V9.99275H86.9001C87.6349 9.99275 88.1955 10.1479 88.5846 10.4554C88.9738 10.7629 89.1643 11.2065 89.1643 11.7861C89.1643 12.3658 88.9711 12.8121 88.5846 13.1223C88.1982 13.438 87.6376 13.5931 86.9001 13.5931Z" fill="white"/>
<path fill-rule="evenodd" clip-rule="evenodd" d="M17.705 2.57166C18.0261 2.57166 18.2847 2.31586 18.2847 2.00018C18.2847 1.68451 18.0234 1.42871 17.705 1.42871C17.3839 1.42871 17.1254 1.68451 17.1254 2.00018C17.1254 2.31586 17.3839 2.57166 17.705 2.57166ZM0 2.43015L10.8853 23.5722L13.5441 18.4071L21.768 2.43015L10.8826 10.5724L0 2.43015ZM23.2212 0C22.9 0 22.6415 0.255803 22.6415 0.571478C22.6415 0.887153 22.9028 1.14296 23.2212 1.14296C23.5396 1.14296 23.8008 0.887153 23.8008 0.571478C23.8008 0.255803 23.5396 0 23.2212 0ZM22.93 5.42907C22.6088 5.42907 22.3503 5.68487 22.3503 6.00055C22.3503 6.31622 22.6088 6.57203 22.93 6.57203C23.2511 6.57203 23.5096 6.31622 23.5096 6.00055C23.5096 5.68487 23.2511 5.42907 22.93 5.42907Z" fill="#C2F62C"/>
</svg>
